%YAML 1.1
%TAG !u! tag:unity3d.com,2011:
--- !u!1045 &1
EditorBuildSettings:
  m_ObjectHideFlags: 0
  serializedVersion: 2
  m_Scenes:
  - enabled: 1
    path: Assets/Scenes/MainMenu.unity
    guid: 0b49797f4bbc54f82bd80a06ee0a021b
  - enabled: 1
    path: Assets/Scenes/Tutorial.unity
    guid: c3ccccd19f09a4cb997a1e5a28b47783
  - enabled: 1
    path: Assets/Scenes/Gameplay.unity
    guid: eac17f2509d9648c08e58f54b03ef4c0
  m_configObjects: {}
